…
    region == "Cleveland" ~ 1,
    region == "Hungarian" ~ 2,
    region == "Long_Beach_VA" ~ 3,
    region == "Switzerland" ~ 4,
  )) |>
  select(-thal,-ca) |>
  drop_na()
case_data = combined_data_two |>
  filter(num == 1)
control_data = combined_data_two |>
  filter(num == 0)
print(case_data)
```

    ## # A tibble: 324 × 13
    ##      age   sex    cp trestbps  chol   fbs restecg thalach exang oldpeak slope
    ##    <dbl> <dbl> <dbl>    <dbl> <dbl> <dbl>   <dbl>   <dbl> <dbl>   <dbl> <dbl>
    ##  1    67     1     4      160   286     0       2     108     1     1.5     2
    ##  2    67     1     4      120   229     0       2     129     1     2.6     2
    ##  3    62     0     4      140   268     0       2     160     0     3.6     3
    ##  4    63     1     4      130   254     0       2     147     0     1.4     2
    ##  5    53     1     4      140   203     1       2     155     1     3.1     3
    ##  6    56     1     3      130   256     1       2     142     1     0.6     2
    ##  7    48     1     2      110   229     0       0     168     0     1       3
    ##  8    58     1     2      120   284     0       2     160     0     1.8     2
    ##  9    58     1     3      132   224     0       2     173     0     3.2     1
    ## 10    60     1     4      130   206     0       2     132     1     2.4     2
    ## # ℹ 314 more rows
    ## # ℹ 2 more variables: num <dbl>, region <dbl>

``` r
print(control_data)
```

    ## # A tibble: 207 × 13
    ##      age   sex    cp trestbps  chol   fbs restecg thalach exang oldpeak slope
    ##    <dbl> <dbl> <dbl>    <dbl> <dbl> <dbl>   <dbl>   <dbl> <dbl>   <dbl> <dbl>
    ##  1    63     1     1      145   233     1       2     150     0     2.3     3
    ##  2    37     1     3      130   250     0       0     187     0     3.5     3
    ##  3    41     0     2      130   204     0       2     172     0     1.4     1
    ##  4    56     1     2      120   236     0       0     178     0     0.8     1
    ##  5    57     0     4      120   354     0       0     163     1     0.6     1
    ##  6    57     1     4      140   192     0       0     148     0     0.4     2
    ##  7    56     0     2      140   294     0       2     153     0     1.3     2
    ##  8    44     1     2      120   263     0       0     173     0     0       1
    ##  9    52     1     3      172   199     1       0     162     0     0.5     1
    ## 10    57     1     3      150   168     0       0     174     0     1.6     1
    ## # ℹ 197 more rows
    ## # ℹ 2 more variables: num <dbl>, region <dbl>

``` r
print(combined_data_two)
```

    ## # A tibble: 531 × 13
    ##      age   sex    cp trestbps  chol   fbs restecg thalach exang oldpeak slope
    ##    <dbl> <dbl> <dbl>    <dbl> <dbl> <dbl>   <dbl>   <dbl> <dbl>   <dbl> <dbl>
    ##  1    63     1     1      145   233     1       2     150     0     2.3     3
    ##  2    67     1     4      160   286     0       2     108     1     1.5     2
    ##  3    67     1     4      120   229     0       2     129     1     2.6     2
    ##  4    37     1     3      130   250     0       0     187     0     3.5     3
    ##  5    41     0     2      130   204     0       2     172     0     1.4     1
    ##  6    56     1     2      120   236     0       0     178     0     0.8     1
    ##  7    62     0     4      140   268     0       2     160     0     3.6     3
    ##  8    57     0     4      120   354     0       0     163     1     0.6     1
    ##  9    63     1     4      130   254     0       2     147     0     1.4     2
    ## 10    53     1     4      140   203     1       2     155     1     3.1     3
    ## # ℹ 521 more rows
    ## # ℹ 2 more variables: num <dbl>, region <dbl>
…
